Ind: 0		Cro: 31		Bin:11111	Fit: 961
Ind: 1		Cro: 31		Bin:11111	Fit: 961
Ind: 2		Cro: 31		Bin:11111	Fit: 961
Ind: 3		Cro: 31		Bin:11111	Fit: 961
Ind: 4		Cro: 31		Bin:11111	Fit: 961
Ind: 5		Cro: 31		Bin:11111	Fit: 961
Ind: 6		Cro: 31		Bin:11111	Fit: 961
Ind: 7		Cro: 31		Bin:11111	Fit: 961
Ind: 8		Cro: 31		Bin:11111	Fit: 961
Ind: 9		Cro: 31		Bin:11111	Fit: 961
Ind: 10		Cro: 31		Bin:11111	Fit: 961
Ind: 11		Cro: 31		Bin:11111	Fit: 961
Ind: 12		Cro: 31		Bin:11111	Fit: 961
Ind: 13		Cro: 31		Bin:11111	Fit: 961
Ind: 14		Cro: 31		Bin:11111	Fit: 961
Ind: 15		Cro: 31		Bin:11111	Fit: 961
Ind: 16		Cro: 31		Bin:11111	Fit: 961
Ind: 17		Cro: 31		Bin:11111	Fit: 961
Ind: 18		Cro: 31		Bin:11111	Fit: 961
Ind: 19		Cro: 31		Bin:11111	Fit: 961
