Ind: 0		Cro: [[0 1 0 0 1]]	Fit: 81
Ind: 1		Cro: [[0 0 0 0 1]]	Fit: 1
Ind: 2		Cro: [[1 1 0 0 0]]	Fit: 576
Ind: 3		Cro: [[1 1 0 1 0]]	Fit: 676
tournament
Ind: 0		Cro: [[1 1 0 0 0]]	Fit: 576
Ind: 1		Cro: [[1 1 0 0 0]]	Fit: 576
Ind: 2		Cro: [[0 1 0 0 1]]	Fit: 81
Ind: 3		Cro: [[1 1 0 0 0]]	Fit: 576
cross
Ind: 0		Cro: [[1]]	Fit: 1
Ind: 1		Cro: [[1 1 0 0 0]]	Fit: 576
Ind: 2		Cro: [[0 1 0 0 1]]	Fit: 81
Ind: 3		Cro: [[1]]	Fit: 1
